{
 
"作者": "小可乐/240601/第一版",
  
"站名": "神仙影视",
    
"请求头": "User-Agent$MOBILE_UA",

"编码": "UTF-8",

"图片代理": "0",

"直接播放": "0",

"播放请求头": "",

"免嗅": "1",

"嗅探词": ".mp4#.m3u8#.flv",

"过滤词": "",


"主页url": "https://ys.sxtv.top",

"首页": "120",

"起始页": "1",

"分类url": "/index.php/vod/show/area/{area}/by/{by}/class/{class}/id/{cateId}/lang/{lang}/letter/{letter}/page/{catePg}/year/{year}.html;;rc",

"分类": "电影&剧集&综艺&动漫&短剧&4K电影&邵氏电影&更新",

"分类值": "1&2&3&4&5&36&37&new",


"二次截取": "",

"数组": "detail/id&&</a>",

"标题": "title=\"&&\"",

"图片": "data-original=\"&&\"",

"副标题": "module-item-note\">&&</div>",

"链接": "/index.php/vod/detail/id/+/&&\"",


"影片年代": "year*>&&</a>",

"影片地区": "area*>&&</div>",

"影片类型": "show/class*>&&</div>",

"状态": "集数：&&</div>",

"导演": "导演：&&</div>",

"主演": "主演：&&</div>",

"简介": "👶+introduction-content\">&&</p>",


"线路二次截取": "",

"线路数组": "module-tab-item tab-item&&/small>",

"线路标题": "👶+>&&</span>+【共+<small>&&<+集】",

"播放二次截取": "",

"播放数组": "module-play-list\">&&</div>",

"倒序": "0",

"播放列表": "<a&&/a>",

"播放标题": "<span>&&</span>",

"播放链接": "href=\"&&\"",

"解析": "",

"跳转播放链接": "var player_*url\":\"&&\"",

"跳转解析": "",


"搜索请求头": "User-Agent$MOBILE_UA",

"搜索url": "/index.php/vod/search/page/{pg}/wd/{wd}.html",

"搜索模式": "1",

"搜索后缀": "",

"搜索二次截取": "",

"搜索数组": "module-item\">&&</a>",

"搜索标题": "alt=\"&&\"",

"搜索图片": "data-original=\"&&\"",

"搜索副标题": "module-item-note\">&&</div>",

"搜索链接": "href=\"&&\"",


"筛选": "1",

"类型": "动作片$6#喜剧片$7#恐怖片$8#科幻片$9#爱情片$10#剧情片$11#战争片$12#动画电影$28||国产剧$13#港台剧$14#日韩剧$15#欧美剧$16||大陆综艺$20#港台综艺$21#日韩综艺$22#欧美综艺$23||国产动漫$24#港台动漫$25#日韩动漫$26#欧美动漫$27||有声动漫$29#古装仙侠$30#年代穿越$31#脑洞悬疑$32#现代都市$33#反转爽剧$34#女频恋爱$35||空||空||空",

"类型值": "",

"剧情": "喜剧&爱情&恐怖&动作&科幻&剧情&战争&警匪&犯罪&动画&奇幻&武侠&冒险&枪战&悬疑&惊悚&经典&青春&文艺&微电影&古装&历史&运动&农村&儿童&网络电影||古装&战争&青春偶像&喜剧&家庭&犯罪&动作&奇幻&剧情&历史&经典&乡村&情景&商战&网剧&其他||空||情感&科幻&热血&推理&搞笑&冒险&萝莉&校园&动作&机战&运动&战争&少年&少女&社会&原创&亲子&益智&励志&其他||空||空||空||空",

"剧情值": "*",

"地区": "大陆&香港&台湾&美国&法国&英国&日本&韩国&德国&泰国&印度&意大利&西班牙&加拿大&其他||内地&韩国&香港&台湾&日本&美国&泰国&英国&新加坡&其他||内地&港台&日韩&欧美||国产&港台&日本&韩国&欧美&海外||空||空||空||空",

"地区值": "*",

"年份": "1990-2024",

"年份值": "*",

"语言": "国语&英语&粤语&闽南语&韩语&日语&法语&德语&其它||国语&英语&粤语&闽南语&韩语&日语&其它||国语&英语&粤语&闽南语&韩语&日语&其它||国语&英语&粤语&闽南语&韩语&日语&其它||空||空||空||空",

"语言值": "*",

"字母": "A&B&C&D&E&F&G&H&I&J&K&L&M&N&O&P&Q&R&S&T&U&V&W&X&Y&Z&0-9",

"字母值": "*",

"排序": "时间&人气&评分",

"排序值": "time&hits&score"

}