{
 
"作者": "🐾Joao/240530/",
  
"站名": "落攻阁影视",   
"请求头": "User-Agent$MOBILE_UA",
"编码": "UTF-8",
"图片代理": "0",
"嗅探词": ".mp4#.m3u8#.flv#ali",
"过滤词": "",
"直接播放": "0",

"主页url": "https://www.lggys.com",

"首页": "200",
"起始页": "1",

"分类url":"https://www.lggys.com/vodshow/{cateId}-{area}-{by}-{class}-----{catePg}---{year}.html;;mrck",


"分类": "电影&电视剧&动漫&综艺&短剧",

"分类值": "dianying&dianshiju&dongman&zongyi&shuangwenduanju",

"二次截取":"",

"数组":"<a&&\"module-poster-item-info\">",

"图片":"data-original=\"&&\"",

"标题": "title=\"&&\"",

"副标题": "module-item-note\">&&</div>",

"链接": "href=\"&&\"",

"线路数组":"data-dropdown-value&&<small>",

"线路标题":"<span>&&</span>",

"播放二次截取":"",

"播放数组":"<div class=\"module-play-list-content&&</div>",
                                 
"播放列表":"<a&&/a>",

"播放标题":"span>&&</span",

"播放链接":"href=\"&&\"",

"倒序":"0",

"跳转播放链接":"urlDecode(vod_class*url\":\"&&\")",

"影片年代": "module-info-tag-link\">&&</p>",

"影片地区": "",

"影片类型": "更新：&&</div>",

"影片状态": "集数：&&</div>",

"导演": "导演：&&</span>",

"主演": "主演：&&</div>",

"简介": "module-info-introduction-content\">&&</p>",

//"搜索url": "/vodsearch/{wd}----------{pg}---.html",

"搜索url": "/vodsearch/-------------.html?wd={wd}",

"搜索模式":"1",

"搜索二次截取":"",

"搜索数组": "<a&&\"module-poster-item-info\">",

"搜索图片": "data-original=\"&&\"",

"搜索标题": "alt=\"&&\"",

"搜索副标题": "module-item-note\">&&</div>",

"搜索链接": "href=\"&&\"",

"筛选": "1",

"剧情": "剧情$剧情#古装$古装#喜剧$喜剧#爱情$爱情#恐怖$恐怖#动作$动作#科幻$科幻#战争$战争#警匪$警匪#犯罪$犯罪#动画$动画#奇幻$奇幻#武侠$武侠#冒险$冒险#枪战$枪战#恐怖$恐怖#悬疑$悬疑#惊悚$惊悚#经典$经典#青春$青春#文艺$文艺#微电影$微电影#历史$历史#运动$运动#农村$农村#儿童$儿童#网络电影$网络电影||剧情$剧情#喜剧$喜剧#战争$战争#青春偶像$青春偶像#家庭$家庭#动作$动作#历史历史$历史#经典$经典#情景$情景#商战$商战#网剧$网剧#其他$其他||亲子$亲子#益智$益智#热血$热血#推理$推理#搞笑$搞笑#冒险$冒险#动作$动作#机战$机战#运动$运动#战争$战争#情感$情感#科幻$科幻#少年$少年#少女$少女#社会$社会#原创$原创#励志$励志#萝莉$萝莉#校园$校园#其他$其他||选秀$选秀#美食$美食#情感$情感#访谈$访谈#播报$播报#旅游$旅游#音乐$音乐#纪实$纪实#曲艺$曲艺#生活$生活#游戏互动$游戏互动#财经$财经#求职$求职||空",

"地区": "大陆$大陆#香港$香港#台湾$台湾#美国$美国#法国$法国#英国$英国#日本$日本#韩国$韩国#德国$德国#泰国$泰国#印度$印度#意大利$意大利#西班牙$西班牙#加拿大$加拿大#其他$其他||内地$内地#韩国$韩国#香港$香港#台湾$台湾#日本$日本#美国$美国#泰国$泰国#英国$英国#新加坡$新加坡#其他$其他||国产$国产#日本$日本#欧美$欧美#其他$其他||内地$内地#港台$港台#日韩$日韩#欧美$欧美||空",

"年份": "2010-2024",

"排序": "最新$time#最热$hits#评分$score"

}