{
 
"作者": "小可乐/240701/第一版",
  
"站名": "桃子影视",
    
"请求头": "User-Agent$MOBILE_UA",

"编码": "UTF-8",

"图片代理": "0",

"直接播放": "0",

"播放请求头": "",

"嗅探词": ".mp4#.m3u8",

"过滤词": "",


"主页url": "https://ios.taozi007.com",

"首页": "120",

"起始页": "1",

"分类url": "/show/{cateId}-{area}-{by}-{class}-{lang}-{letter}---{catePg}---{year}.html;;mrciIC",

"分类": "电影&剧集&综艺&动漫&短剧",

"分类值": "1&2&4&3&5",


"二次截取": "",

"数组": "/detail&&</a>",

"标题": "title=\"&&\"",

"图片": "data-original=\"&&\"",

"副标题": "module-item-note\">&&</div>",

"链接": "/detail/+/&&\"",


"影片年代": "-----------*.html\">&&</a>",

"影片地区": "----------.html\">&&</div>",

"影片类型": "<a href=\"/show*>&&</div>",

"状态": "集数：&&</div>",

"导演": "导演：&&</div>",

"主演": "主演：&&</div>",

"简介": "👶+show-desc*>&&</p>",


"线路二次截取": "",

"线路数组": "module-tab-item tab-item&&/span>",

"线路标题": "👶+value=\"&&\"",

"播放二次截取": "",

"播放数组": "module-play-list\">&&</div>",

"倒序": "0",

"播放列表": "<a&&/a>",

"播放标题": "<span>&&</span>",

"播放链接": "href=\"&&\"",

"解析": "",

"跳转播放链接": "var player_*url\":\"&&\"",

"跳转解析": "👶自营¹$https://ios.taozi007.com/player/?url=",


"搜索请求头": "User-Agent$MOBILE_UA",

"搜索url": "/index.php/ajax/suggest?mid=1&wd={wd}&page={pg}&limit=30",

"搜索模式": "1",

"搜索后缀": "",

"搜索二次截取": "",

"搜索数组": "list",

"搜索标题": "name",

"搜索图片": "pic",

"搜索副标题": "en",

"搜索链接": "'/detail/'+id+'.html'",


"筛选": "1",

"类型": "",

"剧情": "喜剧&爱情&恐怖&动作&科幻&剧情&战争&警匪&犯罪&动画&奇幻&武侠&冒险&枪战&悬疑&惊悚&经典&青春&文艺&微电影&古装&历史&运动&农村&儿童&网络电影||古装&战争&青春偶像&喜剧&家庭&犯罪&动作&奇幻&剧情&历史&经典&乡村&情景&商战&网剧&其他||情感&科幻&热血&推理&搞笑&冒险&萝莉&校园&动作&机战&运动&战争&少年&少女&社会&原创&亲子&益智&励志&其他||选秀&情感&访谈&播报&旅游&音乐&美食&纪实&曲艺&生活&游戏互助&财经&求职||空",

"剧情值": "*",

"地区": "大陆&香港&台湾&美国&法国&英国&日本&韩国&德国&泰国&印度&意大利&西班牙&加拿大&其他||内地&韩国&香港&台湾&日本&美国&泰国&英国&新加坡&其他||国产&日本&欧美&其他||内地&港台&日韩&欧美||空",

"地区值": "*",

"年份": "2004-2024",

"年份值": "*",

"语言": "国语&英语&粤语&闽南语&韩语&日语&法语&德语&其它||国语&英语&粤语&闽南语&韩语&日语&其它||国语&英语&粤语&闽南语&韩语&日语&其它||国语&英语&粤语&闽南语&韩语&日语&其它||空",

"语言值": "*",

"字母": "A&B&C&D&E&F&G&H&I&J&K&L&M&N&O&P&Q&R&S&T&U&V&W&X&Y&Z&0-9",

"字母值": "*",

"排序": "时间&人气&评分",

"排序值": "time&hits&score"

}