{

"规则名": "阿布影院",

"规则作者": "小可乐/240122/第一版",

"请求头参数": "手机",

"网页编码格式": "UTF-8",

"图片是否需要代理": "0",

"是否开启手动嗅探": "0",

"手动嗅探视频链接关键词": ".mp4#.m3u8#.flv",

"手动嗅探视频链接过滤词": ".html#=http",

"链接是否直接播放": "0",

"直接播放链接加前缀": "",

"直接播放链接加后缀": "",

"直接播放直链视频请求头": "",


    
"是否开启获取首页数据": "1",

"首页推荐链接": "https://www.ikanju.cc",

"首页列表数组规则": "body&&.public-r:has(.public-list-bj)",

"首页片单列表数组规则": ".public-list-box",

"首页片单是否Jsoup写法": "1",

"首页片单图片": "",
  
"首页片单标题": "",

"首页片单副标题":"",
  
"首页片单链接": "",
   
"首页片单链接加前缀": "",
   
"首页片单链接加后缀": "",



"分类起始页码": "1",

"分类链接": "https://www.ikanju.cc/kanju{cateId}-{catePg}.html",

"分类名称": "电影&剧集&综艺&动漫&短剧",

"分类名称替换词": "1&2&3&4&55",



"分类截取模式": "1",

"分类Json数据二次截取":"",

"分类列表数组规则": "body&&.public-list-box:has(.ft2)",

"分类片单是否Jsoup写法": "1",

"分类片单图片": "img&&data-src",

"分类片单标题": ".public-list-exp&&title",

"分类片单副标题": ".ft2&&Text",

"分类片单链接": ".public-list-exp&&href",

"分类片单链接加前缀": "https://www.ikanju.cc",

"分类片单链接加后缀": "",


    
"线路列表数组规则": ".nav-swiper&&a",

"线路标题": "'👶'+Text",



"播放列表数组规则": "body&&.anthology-list-play",

"选集列表数组规则": "a",

"选集标题链接是否Jsoup写法": "1",

"选集标题": "Text",

"选集链接": "href",

"是否反转选集序列": "否",

"选集链接加前缀": "https://www.ikanju.cc",

"选集链接加后缀": "",

"分析MacPlayer": "1",


    
"详情是否Jsoup写法": "1",

"类型详情": ".slide-info-remarks,2&&Text+.slide-info-remarks,3&&Text",

"年代详情": ".slide-info-remarks,0&&Text",

"地区详情": ".slide-info-remarks,1&&Text",

"演员详情": ".slide-info:matches(演员)&&Text!演员 :",

"简介详情": "'👶小可乐为您剧情介绍：'+.text.cor3&&Text",



"搜索请求头参数": "User-Agent$手机",

"搜索链接": "https://www.ikanju.cc/vodsearch/page/{SearchPg}/wd/{wd}.html",

"POST请求数据": "",

"搜索截取模式": "1",

"搜索列表数组规则": ".row-right&&.search-box",

"搜索片单是否Jsoup写法": "1",

"搜索片单图片": "img&&data-src",

"搜索片单标题": ".thumb-txt&&Text",

"搜索片单副标题": ".ft2&&Text",

"搜索片单链接": ".public-list-exp&&href",

"搜索片单链接加前缀": "https://www.ikanju.cc",

"搜索片单链接加后缀": "",



"筛选数据": {},

"筛选子分类名称": "",

"筛选子分类替换词": "",

"筛选类型名称": "",

"筛选类型替换词": "*",

"筛选地区名称": "",

"筛选地区替换词": "*",

"筛选年份名称": "",

"筛选年份替换词": "*",

"筛选语言名称": "",

"筛选语言替换词": "*",

"筛选排序名称": "",

"筛选排序替换词": ""

}