{

"规则名": "龙龙影视",

"规则作者": "小可乐/240303/第三版",

"请求头参数": "手机",

"网页编码格式": "UTF-8",

"图片是否需要代理": "0",

"是否开启手动嗅探": "0",

"手动嗅探视频链接关键词": ".mp4#.m3u8#.flv",

"手动嗅探视频链接过滤词": ".html#=http",

"链接是否直接播放": "0",

"直接播放链接加前缀": "",

"直接播放链接加后缀": "#isVideo=true#",

"直接播放直链视频请求头": "",


    
"是否开启获取首页数据": "1",

"首页推荐链接": "http://110.42.99.99:3976",

"首页列表数组规则": "body&&.module-items",

"首页片单列表数组规则": ".module-item",

"首页片单是否Jsoup写法": "1",

"首页片单图片": "",
  
"首页片单标题": "",

"首页片单副标题":"",
  
"首页片单链接": "",
   
"首页片单链接加前缀": "",
   
"首页片单链接加后缀": "",



"分类起始页码": "1",

"分类链接": "http://110.42.99.99:3976/index.php/vod/show/area/{area}/by/{by}/class/{class}/id/{cateId}/lang/{lang}/page/{catePg}/year/{year}.html",

"分类名称": "电影&剧集&综艺&动漫&纪录&动画&短剧&哔哩",

"分类名称替换词": "1&2&3&4&20&22&23&25",



"分类截取模式": "1",

"分类Json数据二次截取":"",

"分类列表数组规则": ".module-items&&.module-item",

"分类片单是否Jsoup写法": "1",

"分类片单图片": "img&&data-src",

"分类片单标题": "a&&title",

"分类片单副标题": ".module-item-text&&Text",

"分类片单链接": "a&&href[替换:/index.php/vod/play/id/=>||/sid/1/nid/1.html=>]",

"分类片单链接加前缀": "http://110.42.99.99:3976/index.php/vod/detail/id/",

"分类片单链接加后缀": ".html",


    
"线路列表数组规则": ".module-player-tab&&.tab-item",

"线路标题": "'👶'+span&&Text+'【共'+small&&Text+'集】'",



"播放列表数组规则": "body&&.scroll-box-y",

"选集列表数组规则": "a",

"选集标题链接是否Jsoup写法": "1",

"选集标题": "Text",

"选集链接": "href",

"是否反转选集序列": "否",

"选集链接加前缀": "http://110.42.99.99:3976",

"选集链接加后缀": "",

"分析MacPlayer": "2",


    
"详情是否Jsoup写法": "1",

"类型详情": ".tag-link,1&&Text",

"年代详情": ".tag-link,2&&Text",

"地区详情": ".tag-link,3&&Text",

"演员详情": ".video-info-items:contains(主演)&&Text!主演：",

"简介详情": "'👶小可乐为您剧情介绍：'+.vod_content&&Text!收起",



"搜索请求头参数": "User-Agent$手机",

"搜索链接": "http://110.42.99.99:3976/index.php/vod/search/page/{SearchPg}/wd/{wd}.html",

"POST请求数据": "searchword={wd}",

"搜索截取模式": "1",

"搜索列表数组规则": ".module-items&&.module-search-item",

"搜索片单是否Jsoup写法": "1",

"搜索片单图片": "img&&data-src",

"搜索片单标题": ".video-serial&&title",

"搜索片单副标题": ".video-serial&&Text",

"搜索片单链接": ".video-serial&&href",

"搜索片单链接加前缀": "http://110.42.99.99:3976",

"搜索片单链接加后缀": "",



"筛选数据": "ext",

"筛选子分类名称": "",

"筛选子分类替换词": "",

"筛选类型名称": "喜剧&爱情&恐怖&动作&科幻&剧情&战争&警匪&犯罪&动画&奇幻&武侠&冒险&枪战&悬疑&惊悚&经典&青春&文艺&微电影&古装&历史&运动&农村&儿童&网络电影||古装&战争&青春偶像&喜剧&家庭&犯罪&动作&奇幻&剧情&历史&经典&乡村&情景&商战&网剧&其他||选秀&情感&访谈&播报&旅游&音乐&美食&纪实&曲艺&生活&游戏互助&财经&求职||情感&科幻&热血&推理&搞笑&冒险&萝莉&校园&动作&机战&运动&战争&少年&少女&社会&原创&亲子&益智&励志&其他||空||空||空||空",

"筛选类型替换词": "*",

"筛选地区名称": "大陆&香港&台湾&美国&法国&英国&日本&韩国&德国&泰国&印度&意大利&西班牙&加拿大&其他||内地&韩国&香港&台湾&日本&美国&泰国&英国&新加坡&其他||内地&港台&日韩&欧美||国产&日本&欧美&其他||空||空||空||空",

"筛选地区替换词": "*",

"筛选年份名称": "2024&2023&2022&2021&2020&2019&2018&2017&2016&2015&2014&2013&2012&2011&2010&2009&2008&2007&2006&2005&2004",

"筛选年份替换词": "*",

"筛选语言名称": "国语&英语&粤语&闽南语&韩语&日语&法语&德语&其它||国语&英语&粤语&闽南语&韩语&日语&其它||国语&英语&粤语&闽南语&韩语&日语&其它||国语&英语&粤语&闽南语&韩语&日语&其它||空||空||空||空",

"筛选语言替换词": "*",

"筛选排序名称": "时间&人气&评分",

"筛选排序替换词": "time&hits&score"

}