{

"规则名": "阿狸视频",

"规则作者": "小可乐/240105/第一版",

"请求头参数": "手机",

"网页编码格式": "UTF-8",

"图片是否需要代理": "0",

"是否开启手动嗅探": "0",

"手动嗅探视频链接关键词": ".mp4#.m3u8#.flv",

"手动嗅探视频链接过滤词": ".html#=http",

"链接是否直接播放": "0",

"直接播放链接加前缀": "",

"直接播放链接加后缀": "#isVideo=true#",

"直接播放直链视频请求头": "",


    
"是否开启获取首页数据": "1",

"首页推荐链接": "http://alitv.icu",

"首页列表数组规则": "body&&.videoul",

"首页片单列表数组规则": "li",

"首页片单是否Jsoup写法": "1",

"首页片单图片": "",
  
"首页片单标题": "",

"首页片单副标题":"",
  
"首页片单链接": "",
   
"首页片单链接加前缀": "",
   
"首页片单链接加后缀": "",



"分类起始页码": "1",

"分类链接": "http://alitv.icu/index.php/vod/cid/{cateId}/area/{area}/page/{catePg}/year/{year}/sort/{by}.html",

"分类名称": "电影&剧集&综艺&动漫&体育",

"分类名称替换词": "1&2&4&3&34",



"分类截取模式": "1",

"分类Json数据二次截取":"",

"分类列表数组规则": ".videoul&&li",

"分类片单是否Jsoup写法": "1",

"分类片单图片": "img&&lay-src",

"分类片单标题": ".videoul-title&&Text",

"分类片单副标题": ".videoul-tips1&&Text",

"分类片单链接": "a&&href",

"分类片单链接加前缀": "http://alitv.icu",

"分类片单链接加后缀": "",


    
"线路列表数组规则": "body&&.play-info",

"线路标题": "'👶阿狸线路'",



"播放列表数组规则": "body&&.play-ji-ul",

"选集列表数组规则": "a",

"选集标题链接是否Jsoup写法": "1",

"选集标题": "Text",

"选集链接": "href",

"是否反转选集序列": "否",

"选集链接加前缀": "http://alitv.icu",

"选集链接加后缀": "",

"分析MacPlayer": "1",


    
"详情是否Jsoup写法": "1",

"类型详情": ".vod-info-right&&span,0&&Text",

"年代详情": "",

"地区详情": ".vod-info-right&&p,1&&Text",

"演员详情": ".vod-info-right&&p,3&&Text!主演：",

"简介详情": "'👶小可乐为您剧情介绍：'+.vod-info-text&&Text!简介：",



"搜索请求头参数": "User-Agent$手机",

"搜索链接": "http://alitv.icu/index.php/search.html?key={wd};post",

"POST请求数据": "searchword={wd}",

"搜索截取模式": "1",

"搜索列表数组规则": ".videoul&&li",

"搜索片单是否Jsoup写法": "1",

"搜索片单图片": "img&&lay-src",

"搜索片单标题": ".videoul-title&&Text",

"搜索片单副标题": ".videoul-tips1&&Text",

"搜索片单链接": "a&&href",

"搜索片单链接加前缀": "http://alitv.icu",

"搜索片单链接加后缀": "",



"筛选数据": "ext",

"筛选子分类名称": "动作片&喜剧片&爱情片&科幻片&恐怖片&剧情片&战争片&悬疑片&犯罪片&惊悚片&冒险片&纪录片&动画片&微电影&其他片||国产剧&香港剧&台湾剧&韩剧&日剧&泰剧&欧美剧&其他剧||大陆综艺&日韩综艺&港台综艺&欧美综艺||国产动漫&日韩动漫&欧美动漫&其他动漫||空||",

"筛选子分类替换词": "5&6&7&8&9&10&11&12&13&14&15&16&17&18&19||20&21&35&22&36&37&23&24||29&30&31&32||&25&26&27&28||空||",

"筛选类型名称": "",

"筛选类型替换词": "*",

"筛选地区名称": "大陆&香港&台湾&美国&法国&英国&日本&韩国&德国&泰国&印度&新加坡&其他",

"筛选地区替换词": "*",

"筛选年份名称": "2024&2023&2022&2021&2020&2019&2018&2017&2016&2015&2014&2013&2012&2011&2018&2009&2008&2007",

"筛选年份替换词": "*",

"筛选语言名称": "",

"筛选语言替换词": "*",

"筛选排序名称": "人气&评分",

"筛选排序替换词": "hits&score"

}