  {
"站名":"华乐影院",
"请求头": "手机",
"编码": "UTF-8",
"主页url":"https://www.huale.tv",
"标题":"alt=\"&&\"",
"图片":"data-src=\"&&\"", 
"副标题":"public-list-prb hide ft2\"&&</span>",
"线路数组":"fa ds-dianying\"&&</a>",
"线路标题":"</i>&&</a>",
"播放数组":"anthology-list-play&&</ul>",
"导演":"导演：&&</span>",
"主演":"主演：&&</span>",
"简介":"hide-article\"&&",
"搜索模式":1,
"搜索url":"/vodsearch.html?wd={wd}",
"嗅探词": ".mp4#.m3u8",
"分类url": "https://www.huale.tv/vodshow/{cateId}/page/{catePg}.html",
"分类":"电影$1#电视剧$2#综艺$3#动漫$4"

}