{

    "作者": "NB",
    
    "站名": "口袋追剧",
    
    "主页url": "https://www.k987.tv/",
    
    "简介": "【NB哥温馨提示】资源仅供测试交流，不得商用！请勿相信影片中的广告，以免上当受骗。+text cor3&&</div>",
    
    "导演": "导演：&&</p>",
    
    "图片": "data-src=\"&&\"",
    
    "链接": "href=\"&&\"",
    
    "标题": "title=\"&&\"",
    
    "捜索模式": "1",
    
    "播放列表": "<a&&</a>",
    
    "数组": "_self\" class=\"public-list-exp\"&&</div>",
    
    "播放数组": "<ul class=\"anthology-list-play size\">&&</ul>",
    
    "线路数组": "<i class=\"fa ds-dianying\">&&</a>[排序:臻享>优享]",
    
    "线路标题":">&&<",
    
    "嗅探词": ".m3u8#.mp4#.flv#aliyundrive#alicloudccp",
    
    "搜索url": "/search/wd/{wd}.html",
   
    "分类url": "https://www.k987.tv?{cateId}{catePg}",
    
    "分类": "搜索观看$888"  
    
}