{

    "作者": "好食猫",
    
    
"站名": "如意影视",
    
    
"请求头": "手机",
    
    
"主页url": "https://ruyiys.com/",
    
   
 "简介": "【好食猫温馨提示】资源仅供测试交流，不得商用！请勿相信影片中的广告，以免上当受骗。+module-info-introduction-content&&</div>",
    
    
"影片类型": "class=\"moduie-item-box\">&&立即播放",
    
   
 "演员": "主演：&&</span>",
    
    
"导演": "导演：&&</span>",
    
    
"图片": "data-original=\"&&\"",
    
    
"链接": "href=\"&&\"",
    
    
"标题": "alt=\"&&\"",
    
   
 "副标题": "module-info-item-text\">&&</span>",
    
  
 // "捜索模式": "1",
    
    
"播放列表":"a&&</a>",
    
  
  "播放标题":"<span>&&</span>",
    
   
 "播放数组": "<div class=\"scroll-content\">&&</div>",
      
  
  "线路数组": "data-dropdown-value=&&</div>",
    
 
   "线路标题":"<span>&&</small>[替换:</span><small>>>共]+集",
    

    //"嗅探词": ".m3u8#.mp4#.flv#aliyundrive#alicloudccp",
    
   
 //"搜索url": "/index.php/vod/search.html?wd={wd/page/{pg}.html",
    
    
//"搜索数组":"<img class=\"lazy lazyload&&</h3>",
    
   
// "搜索图片": "data-original=\"&&\"",

    
   
 //"搜索链接": "href=\"&&\"",
    
    
//"搜索标题": "alt=\"&&\"",
    
    
//"搜索副标题":"module-info-item-text\">&&</span>",
    
    
"分类url": "https://ruyiys.com/index.php/vod/show/area/{area}/by/{by}/id/{cateId}/page/{catePg}/year/{year}.html";;mak",
                "分类": "电影$6#连续剧$1#综艺$8#动漫$7"
   

    
}
