  {
"站名":"牛电影",
"请求头": "手机",
"编码": "UTF-8",
"主页url":"https://www.niudy.net/",
"数组":"col-lg-6 col-md-6 col-sm-4 col-xs-3&&</li>",
"标题":"title=\"&&\"",
"图片":"data-original=\"&&\"", 
"副标题":"pic-text text-right\"&&</span>",
"线路数组": "data-toggle=&&</li>", 
"播放数组":"myui-content__list&&</ul>",
"导演":"导演：&&</span>",
"主演":"主演：&&</span>",
"简介":"hide-article\"&&",
"搜索模式":1,
"搜索url":"https://www.niudy.net/vodsearch/-------------.html?wd={wd}&submit=",
"嗅探词": ".mp4#.m3u8",
"分类url": "https://www.niudy.net/vod-type-id-{cateId}/page/{catePg}.html",
"分类数组":"col-lg-5 col-md-5 col-sm-5 col-xs-3&&</li>",
"分类标题":">&&</a>",
"分类ID":"/vod-type-id-&&.html"

}