{
"站名":"王牌影视",
"请求头": "手机",
"主页url":"https://www.scxxw.com.cn/",
"数组":"module-item-cover&&module-item\"",
"图片":"data-src=\"&&\"",
"标题":"title=\"&&\"",
"副标题":"module-item-caption\"&&</div>",
"链接":"href=\"&&\"",
"线路数组":"data-dropdown-value=&&</div>",
"线路标题":"<span>&&</small>[替换:</span><small>>>共]+集",
"播放数组":"scroll-content scroll-y scroll-play&&</div>",
"搜索模式":1,
"搜索url":"/news/list-{wd}----------{pg}---.html",
"搜索标题":"alt=\"&&\"",
"搜索图片":"data-src=\"&&\"",
"搜索链接":"href=\"&&\"",
"导演":"导演：&&</a>",
"主演":"主演：&&</a>",
"简介":"text cor3\">&&</div>",
"嗅探词": ".m3u8#mp4#cdn.123pan.cn#huoshanvod.com",
"分类url":"https://www.scxxw.com.cn/news/index-{cateId}-{catePg}.html",
"分类":"电影$1#电视剧$2#综艺$20#动漫$3"

}
