﻿{

"站名":"纽约视频",
"请求头": "手机",
"主页url":"https://nycvod.com/",
"图片":"data-src=\"&&\"",
"标题":"title=\"&&\"",
"副标题":"public-prt hide ol1\"&&</span>",
"链接":"href=\"&&\"",
"线路数组":"fa ds-dianying&&</a>",
"线路标题":">&&</span>",
"播放数组":"anthology-list-play&&</ul>",
"搜索模式":1,
"搜索url":"https://nycvod.com/vodsearch/{wd}----------{pg}---.html",
"搜索标题":"alt=\"&&\"",
"搜索图片":"data-src=\"&&\"",
"搜索链接":"href=\"&&\"",
"导演":"导演：&&</a>",
"主演":"主演：&&</a>",
"简介":"text cor3\">&&</div>",
"嗅探词": ".m3u8#mp4#cdn.123pan.cn#huoshanvod.com",
"分类url":"https://nycvod.com/vodshow/{cateId}--------{catePg}---.html",
"分类二次截取":"swiper-wrapper&&</ul>",
"分类数组":"swiper-slide&&</li>",
"分类标题":">&&</a>",
"分类ID":"/vodshow/&&-----------.html"
}
