{
"作者":"甜心宝宝",
"站名":"魔法网",
"请求头": "手机",
"编码": "UTF-8",
"主页url":"https://www.kuyavod.com/",
 "数组":"<div&&</div>",
"图片":"data-original=\"&&\"",
"标题":"title=\"&&\"",
"副标题":"pic-text text-right\">&&<span>",
"捜索模式": "1",
"链接":"href=\"&&\"",
"线路数组": "data-toggle=&&</li>",  
"线路标题":">&&</a>",
"播放数组":"myui-content__list sort-list clearfix&&</ul>",
"嗅探词": ".m3u8#.mp4#.flv#aliyundrive#alicloudccp",
"搜索url": "https://www.kuyavod.com/vodsearch/{cateId}/page/{catePg}/{wd}.html",
"导演":"导演：&&</span>",
"主演":"主演：&&</span>",
"简介":"text text-overflow text-muted hidden-xs\">&&</p>",
"分类url":"https://www.kuyavod.com/vodshow/{cateId}/by/{by}/page/{catePg}/year/{year}.html",

"分类":"电影$movie#电视剧$drama#综艺$show#动漫$animation#体育$sport"

}